<?xml version="1.0" encoding="UTF-8"?>
<svg xmlns="http://www.w3.org/2000/svg" xmlns:xlink="http://www.w3.org/1999/xlink" width="456.522537" height="300" viewBox="0 0 456.522537 300">
<defs>
<clipPath id="clip-0">
<path clip-rule="nonzero" d="M 39 13 L 349 13 L 349 296.34375 L 39 296.34375 Z M 39 13 "/>
</clipPath>
</defs>
<g clip-path="url(#clip-0)">
<path fill="none" stroke-width="0.3985" stroke-linecap="butt" stroke-linejoin="miter" stroke="rgb(0%, 0%, 0%)" stroke-opacity="1" stroke-miterlimit="10" d="M 28.345731 0.00014035 C 28.345731 15.655379 15.656196 28.344914 0.000957509 28.344914 C -15.654281 28.344914 -28.347254 15.655379 -28.347254 0.00014035 C -28.347254 -15.655099 -15.654281 -28.34893 0.000957509 -28.34893 C 15.656196 -28.34893 28.345731 -15.655099 28.345731 0.00014035 Z M 28.345731 0.00014035 " transform="matrix(4.545453, 0, 0, -4.545453, 194.261273, 167.504544)"/>
</g>
<path fill="none" stroke-width="0.3985" stroke-linecap="butt" stroke-linejoin="miter" stroke="rgb(0%, 0%, 0%)" stroke-opacity="1" stroke-miterlimit="10" d="M 47.141128 12.195535 L -35.833272 19.455537 " transform="matrix(4.545453, 0, 0, -4.545453, 194.261273, 167.504544)"/>
<path fill-rule="nonzero" fill="rgb(100%, 0%, 0%)" fill-opacity="1" stroke-width="0.3985" stroke-linecap="butt" stroke-linejoin="miter" stroke="rgb(100%, 0%, 0%)" stroke-opacity="1" stroke-miterlimit="10" d="M 25.957528 14.172957 C 25.957528 14.951551 25.329324 15.580614 24.549871 15.580614 C 23.771277 15.580614 23.137917 14.951551 23.137917 14.172957 C 23.137917 13.393504 23.771277 12.7653 24.549871 12.7653 C 25.329324 12.7653 25.957528 13.393504 25.957528 14.172957 Z M 25.957528 14.172957 " transform="matrix(4.545453, 0, 0, -4.545453, 194.261273, 167.504544)"/>
<path fill-rule="nonzero" fill="rgb(100%, 0%, 0%)" fill-opacity="1" stroke-width="0.3985" stroke-linecap="butt" stroke-linejoin="miter" stroke="rgb(100%, 0%, 0%)" stroke-opacity="1" stroke-miterlimit="10" d="M -20.304361 18.222333 C -20.304361 19.000927 -20.936861 19.62999 -21.716314 19.62999 C -22.491471 19.62999 -23.123971 19.000927 -23.123971 18.222333 C -23.123971 17.44288 -22.491471 16.81038 -21.716314 16.81038 C -20.936861 16.81038 -20.304361 17.44288 -20.304361 18.222333 Z M -20.304361 18.222333 " transform="matrix(4.545453, 0, 0, -4.545453, 194.261273, 167.504544)"/>
</svg>
